…
``` r
rest_inspections = 
  rest_inspections %>% 
  filter(grade %in% c("A", "B", "C"), boro != "0")
```

Let’s look at the pizza places

``` r
rest_inspections %>% 
  mutate(dba = str_to_upper(dba)) %>% 
  filter(str_detect(dba, "PIZZA")) 
```

    ## # A tibble: 111 x 26
    ##     camis dba   boro  building street zipcode  phone cuisine_descrip…
    ##     <dbl> <chr> <chr> <chr>    <chr>    <dbl>  <dbl> <chr>           
    ##  1 4.12e7 LUIG… Broo… 4704     5 AVE…   11220 7.18e9 Pizza           
    ##  2 4.12e7 D'AN… Bronx 1160     PUGSL…   10472 7.19e9 Mexican         
    ##  3 4.14e7 FRAN… Bronx 772      CASTL…   10473 7.19e9 Pizza           
    ##  4 5.00e7 PIZZ… Broo… 1501     PITKI…   11212 7.19e9 Pizza           
    ##  5 5.01e7 LA M… Manh… 1580     1 AVE…   10028 2.12e9 Pizza/Italian   
    ##  6 4.04e7 AMNO… Broo… 4814     13 AV…   11219 7.19e9 Jewish/Kosher   
    ##  7 4.06e7 JOHN… Manh… 260      WEST …   10036 2.12e9 Pizza           
    ##  8 5.01e7 PIZZ… Manh… 2166     FREDE…      NA 2.12e9 Pizza           
    ##  9 4.10e7 THE … Bronx 4024     WHITE…   10466 7.19e9 Pizza           
    ## 10 4.04e7 FRAN… Broo… 2134     FLATB…   11234 7.18e9 Pizza           
    ## # … with 101 more rows, and 18 more variables: inspection_date <dttm>,
    ## #   action <chr>, violation_code <chr>, violation_description <chr>,
    ## #   critical_flag <chr>, score <dbl>, grade <chr>, grade_date <dttm>,
    ## #   record_date <dttm>, inspection_type <chr>, latitude <dbl>, longitude <dbl>,
    ## #   community_board <dbl>, council_district <chr>, census_tract <chr>,
    ## #   bin <dbl>, bbl <dbl>, nta <chr>
…
